-------------------------------------------------------

Пакет: com.epam.rd.java.basic.taskN
где N - номер задания

Классы: 

Task - демонстрирует работу приложения.

Parking - содержит требуемую по условию функциональность.

-------------------------------------------------------

Реализовать класс Parking, моделирующий работу n-местной автостоянки.
Значение n передавать в конструкторе.

Машина подъезжает к определенному месту k (0 <= k <= n) и, если оно не 
занято, занимает его.

Если место k занято, то едет вправо, пока не встретит свободное место.

Если свободного места вплоть до конца стоянки нет, то поиск свободного места 
осуществляется с начала стоянки.

Если все места заняты, то состояние стоянки не меняется (машина уезжает).
Данную функциональность реализовать в методе:
-------------------------------------------------------
// Метод возвращает true, если машину удалось поставить на стоянку
boolean arrive(int k)
-------------------------------------------------------

Дополнительно реализовать метод, который моделирует отъезд машины:
-------------------------------------------------------
// Метод возвращает true, если в позиции k находилась машина
boolean depart(int k)
-------------------------------------------------------

Методы бросают исключение IllegalArgumentException, если k находится вне 
диапазона [0, n-1].

Также реализовать метод, который возвращает текущее состояние стоянки 
в виде строки:
-------------------------------------------------------
String toString()
-------------------------------------------------------

Обозначать нулем пустое место; единицей - занятое место.

Пример для n=4.
Начальное состояние стоянки: 0000

Состояние стоянки после выполнения методов (справа после запятой значение, 
возвращаемое методами):
-------------------------------------------------------
parking.arrive(2)  // 0010, true
parking.arrive(3)  // 0011, true
parking.arrive(2)  // 1011, true
parking.arrive(2)  // 1111, true
parking.arrive(2)  // 1111, false
parking.depart(1)  // 1011, true
parking.depart(1)  // 1011, false
-------------------------------------------------------

Продемонстрировать работу приложения (Task.main).
